 <svg xmlns='http://www.w3.org/2000/svg'
      width='15'
      height='15'
      viewBox='0 0 24 24'
      fill='none'
      stroke='white'
      strokeWidth='2'
      strokeLinecap='round'
      strokeLinejoin='round'>
      <line x1='5' y1='12' x2='19' y2='12' />
 </svg>